{
  "project_info": {
    "project_number": "255265698420",
    "firebase_url": "https://syncapp-40a91.firebaseio.com",
    "project_id": "syncapp-40a91",
    "storage_bucket": "syncapp-40a91.appspot.com"
  },
  "client": [
    {
      "client_info": {
        "mobilesdk_app_id": "1:255265698420:android:df4a925f101696be",
        "android_client_info": {
          "package_name": "com.hamatim.blacklist"
        }
      },
      "oauth_client": [
        {
          "client_id": "255265698420-u9tsie2r89n7m00v0hc1cg4b4ts49iu1.apps.googleusercontent.com",
          "client_type": 3
        }
      ],
      "api_key": [
        {
          "current_key": "AIzaSyBPzO5V6q8dj7dWkDkSADJ2raT6yL3X6kM"
        }
      ],
      "services": {
        "appinvite_service": {
          "other_platform_oauth_client": [
            {
              "client_id": "255265698420-u9tsie2r89n7m00v0hc1cg4b4ts49iu1.apps.googleusercontent.com",
              "client_type": 3
            }
          ]
        }
      },
      "admob_app_id": "ca-app-pub-1067268452809212~1301226779"
    },
    {
      "client_info": {
        "mobilesdk_app_id": "1:255265698420:android:8404a37d13c946c9",
        "android_client_info": {
          "package_name": "com.hamatim.clipboard"
        }
      },
      "oauth_client": [
        {
          "client_id": "255265698420-5v4a39jt89hssf9n1v1f3bblvv9lfvmi.apps.googleusercontent.com",
          "client_type": 1,
          "android_info": {
            "package_name": "com.hamatim.clipboard",
            "certificate_hash": "02f01550960213c4c2485728abc93da4469b732f"
          }
        },
        {
          "client_id": "255265698420-u9tsie2r89n7m00v0hc1cg4b4ts49iu1.apps.googleusercontent.com",
          "client_type": 3
        }
      ],
      "api_key": [
        {
          "current_key": "AIzaSyBPzO5V6q8dj7dWkDkSADJ2raT6yL3X6kM"
        }
      ],
      "services": {
        "appinvite_service": {
          "other_platform_oauth_client": [
            {
              "client_id": "255265698420-u9tsie2r89n7m00v0hc1cg4b4ts49iu1.apps.googleusercontent.com",
              "client_type": 3
            }
          ]
        }
      }
    },
    {
      "client_info": {
        "mobilesdk_app_id": "1:255265698420:android:30e5d0e0b204f8ec901721",
        "android_client_info": {
          "package_name": "com.hamatim.coronastatistic"
        }
      },
      "oauth_client": [
        {
          "client_id": "255265698420-u9tsie2r89n7m00v0hc1cg4b4ts49iu1.apps.googleusercontent.com",
          "client_type": 3
        }
      ],
      "api_key": [
        {
          "current_key": "AIzaSyBPzO5V6q8dj7dWkDkSADJ2raT6yL3X6kM"
        }
      ],
      "services": {
        "appinvite_service": {
          "other_platform_oauth_client": [
            {
              "client_id": "255265698420-u9tsie2r89n7m00v0hc1cg4b4ts49iu1.apps.googleusercontent.com",
              "client_type": 3
            }
          ]
        }
      }
    },
    {
      "client_info": {
        "mobilesdk_app_id": "1:255265698420:android:d30db27b40f56980",
        "android_client_info": {
          "package_name": "com.hamatim.intervaltimer"
        }
      },
      "oauth_client": [
        {
          "client_id": "255265698420-u9tsie2r89n7m00v0hc1cg4b4ts49iu1.apps.googleusercontent.com",
          "client_type": 3
        }
      ],
      "api_key": [
        {
          "current_key": "AIzaSyBPzO5V6q8dj7dWkDkSADJ2raT6yL3X6kM"
        }
      ],
      "services": {
        "appinvite_service": {
          "other_platform_oauth_client": [
            {
              "client_id": "255265698420-u9tsie2r89n7m00v0hc1cg4b4ts49iu1.apps.googleusercontent.com",
              "client_type": 3
            }
          ]
        }
      }
    }
  ],
  "configuration_version": "1"
}